What’s Happening With Rivian Stock?;TSLA;0.276057;2022-02-11 14:15:17;1
Faraday Futures Partners With Myoung Shin On Second EV Model;TSLA;-0.0129;2022-02-09 21:50:04;0
Velodyne Lidar Stock Jumps 60% On Amazon Investment, Will It Rally Further?;TSLA;0.442567;2022-02-09 15:00:56;0
Bitcoin Prices Reach Highest Since Early January As Adoption Bolsters Sentiment;TSLA;0.041833;2022-02-07 23:17:54;-1
Is Bitcoin Becoming Just Another Tech Stock?;TSLA;0.3612;2022-02-06 22:00:39;0
Cathie Wood Focuses On Top Holdings In 4th Quarter;TSLA;0.4715;2022-02-04 17:41:42;1
Stocks Plunge After Facebook’s Massive Sell-Off, Nasdaq Falls 3.7%;TSLA;-0.1531;2022-02-03 21:04:34;-1
Tech Stocks Plunge After Facebook’s Massive Earnings Miss, Nasdaq Falls Nearly 2%;TSLA;0.2732;2022-02-03 15:25:27;0
Strong Earnings From Cloud Behemoths Bode Well For Snowflake Stock;TSLA;0.7269;2022-02-03 11:30:57;-1
Cathie Wood Buys More Robinhood And Tesla, Tells Investors To Take ‘Advantage’ Of Volatility;TSLA;0.204133;2022-02-01 19:04:29;0
Tesla Stock Looks Poised To Rise After Recent Sell Off;TSLA;0.3449;2022-02-01 14:30:16;1
Apple’s Blowout Earnings Prove Its Shares Are Cheap;TSLA;0.5267;2022-01-31 16:56:51;1
Elon Musk And The Other Billionaires Whose Fortunes Fell This Week As Tech Stocks Continue To Struggle;TSLA;0.062325;2022-01-29 11:30:00;1
The Nasdaq Composite Is On Track For Its Worst January Ever;TSLA;-0.29295;2022-01-28 15:05:44;-1
Markets Are Falling But Splashy IPO Stocks Like Robinhood And Coinbase Are Doing Even Worse;TSLA;-0.631;2022-01-27 22:14:09;-1
Tesla Reflects Popular Theme Of Good Earnings But Ongoing Supply Chain Problems;TSLA;-0.13615;2022-01-27 15:06:31;1
The Roller Coaster Week Continues As The Market Reacts To The Fed’s Interest Rate Announcement;TSLA;-0.6956;2022-01-26 22:46:49;-1
“The Biggest Tech Earnings Season In 10 Years”: As Tech Stocks Crater And Recover, Fundamentals Matter;TSLA;-0.01865;2022-01-26 20:01:38;1
Earnings Preview: What To Expect From Tesla Today;TSLA;0;2022-01-26 15:04:43;1
Rivian Stock Is 60% Off Its Highs, But Don’t Buy Yet;TSLA;0.23588;2022-01-25 13:00:36;0
Kohl’s, Gap, And Domino’s Rally On A Roller Coaster Monday;TSLA;0.650267;2022-01-25 00:28:53;1
Stock Market ‘Panic Is Setting In’ As S&P 500 Briefly Enters Correction Territory Then Rebounds;TSLA;0.2732;2022-01-24 21:04:11;1
Stock Market ‘Panic Is Setting In’ As S&P 500 Enters Correction Territory;TSLA;-0.7003;2022-01-24 16:12:38;-1
Earnings From Apple, Microsoft, And Tesla Could Provide Insights Into Investor Conviction;TSLA;0.46078;2022-01-24 14:44:56;-1
Tesla and Box: Two Focus List Shorts Poised To Payoff;TSLA;0.149191;2022-01-24 14:16:35;-1
Netflix Stock Crashes As Nasdaq Has Worst Week Since October 2020;TSLA;0.5759;2022-01-21 21:13:59;-1
Why Luminar Stock May See Lower Levels Going Forward;TSLA;0.35222;2022-01-21 13:00:25;-1
2 Dangerous Dividends That’ll Be Wiped Out In ’22;TSLA;0.765;2022-01-19 19:57:00;0
With Bitcoin At $43,000, Check Out These Crypto Stocks;TSLA;0.4576;2022-01-19 11:30:00;1
Ford’s Amped Up Electric Vehicle Strategy Boost Shares, Tops GM’s Market Cap;TSLA;0.278967;2022-01-13 20:01:28;0
The Materials Sectors May Not Be As Inflationary As Some Investors Suspect;TSLA;0.4117;2022-01-13 17:22:21;-1
QuantumScape Stock Declines Further. Should You Buy?;TSLA;0.390325;2022-01-11 15:15:07;-1
Cathie Wood’s Rollercoaster Performance Offers A Familiar Lesson About Volatility;TSLA;0.3182;2022-01-09 22:27:37;0
Tesla Triumphs Among Cathie Wood's Top Holdings;TSLA;0.381367;2022-01-07 19:49:13;-1
If This Nasdaq Level Breaks It’s Gonna Get Ugly;TSLA;0.765;2022-01-07 19:43:13;-1
Warren Buffett’s Berkshire Hathaway Hits All Time High At $700 Billion Market Valuation;TSLA;0.6603;2022-01-06 21:56:51;1
Rivian Stock Down 40% From Its Highs, But Don’t Buy Yet;TSLA;0.2709;2022-01-06 14:30:42;1
Stocks Plunge After Fed Minutes Show Central Bank Could Remove More Stimulus;TSLA;0.802;2022-01-05 21:00:31;-1
Nio, Xpeng, Li Auto: Chinese EV Stocks Had A Good December. What Does 2022 Hold?;TSLA;0.115175;2022-01-04 14:00:45;1
Stocks Rally To Jumpstart 2022, Tesla Surges And Apple Hits $3 Trillion;TSLA;0.608375;2022-01-03 21:01:28;1
The Investing Highs And Lows Of 2021;TSLA;0.5994;2022-01-03 16:31:34;1
What Next For Tesla Stock?;TSLA;0.322173;2021-12-31 13:00:00;1
What Does 2022 Hold For Xpeng Stock?;TSLA;0.11265;2021-12-31 10:30:00;1
Equity Markets Are Mostly Flat, But Bonds Are On The Move;TSLA;0.4767;2021-12-29 15:15:35;0
Investors Shrug Off Rising Omicron Cases To Buy Stocks;TSLA;0.3483;2021-12-28 14:44:30;0
With Bitcoin At $51,000, Check Out These Crypto Stocks;TSLA;0.4576;2021-12-28 11:30:24;0
Travel And Leisure Stocks Trading Higher Before The Opening Bell As Omicron Fears Slide;TSLA;0.50555;2021-12-23 14:45:33;-1
Bridgewater: Beware The Popping Of These Bubbles As Liquidity Runs Out;TSLA;0.5719;2021-12-23 14:34:56;0
Is Nio Stock Poised To Recover From The Recent Sell Off?;TSLA;0.03245;2021-12-23 13:00:32;0
White House Watch: Biden Addresses Omicron Fight While Pushing For Build Back Better Bill;TSLA;-0.07555;2021-12-22 14:32:51;0
The 10 Biggest Billionaire Gainers Of 2021;TSLA;0.49114;2021-12-20 12:00:00;1
FedEx And UPS May Be Signs Of Supply Chain Improvements;TSLA;0.20725;2021-12-17 15:11:30;0
3 Ways Blockchain Is Going To Shake Up Traditional Investing;TSLA;0.802;2021-12-17 13:45:00;0
Facebook Warns 50,000 Users Were Targeted By Spy-For-Hire Companies;TSLA;0.4215;2021-12-16 20:00:42;0
Buy The Dip In QuantumScape Stock?;TSLA;0.390325;2021-12-16 14:30:10;0
Will Tesla’s Delayed Cybertruck Be A Big Money Maker?;TSLA;0.17002;2021-12-16 13:00:09;0
Tesla Hit By 6 More Sexual Harassment Claims;TSLA;-0.21145;2021-12-14 22:00:19;1
Microsoft, Tesla Lead Big Tech Declines As Markets Fall On More Bad Inflation Data;TSLA;-0.0803;2021-12-14 21:06:48;1
Cybersecurity Stocks Are Outperforming, But There Are Risks;TSLA;0.3818;2021-12-14 16:30:00;0
Tesla Stock Is Meaningfully Overvalued. Here’s Why;TSLA;0.394764;2021-12-14 15:30:00;-1
Australian Tech Billionaire Mike Cannon-Brookes Saving The Planet Through Philanthropy, Investments;TSLA;-0.128;2021-12-13 22:01:01;1
Dow Drops More Than 300 Points Ahead Of Fed Meeting, Tesla Sinks While Pfizer, Moderna Jump;TSLA;0.241467;2021-12-13 21:09:21;1
Why Are Tesla’s Self Driving Software Sales Slowing Down?;TSLA;0.15057;2021-12-13 12:00:00;0
Should You Buy The Dip In Nio Stock?;TSLA;0.03245;2021-12-10 14:30:58;1
Elon Musk Loses $15 Billion On Thursday As Tesla Stock Drops 6%;TSLA;0.2712;2021-12-09 22:45:48;-1
S&P 500: The World’s Most Misleading Stock Market Indicator?;TSLA;0.765;2021-12-08 15:00:00;0
Tesla Is Racing Ahead, But Is It Worth 17x BMW?;TSLA;0.372818;2021-12-07 12:00:48;1
From Abigail Johnson To Laura Cha, Here Are This Year’s Most Powerful Women In Finance;TSLA;0.0258;2021-12-07 11:00:00;1
Dow Jumps 750 Points Despite Growing Number Of Omicron Cases;TSLA;0.4853;2021-12-06 19:04:03;1
As Nadella, Musk, And Bezos Sell To Pay Less Tax, Buy Microsoft Stock;TSLA;0.393088;2021-12-04 19:24:52;1
Dow Jones Industrial Average Sees Four-Week Losing Streak;TSLA;-0.3818;2021-12-03 22:50:39;0
Are Battery Cost Improvements Still A Big Driver Of Tesla’s Margins?;TSLA;-0.00369;2021-12-01 13:15:32;0
Will Luminar Stock Continue To Decline?;TSLA;0.377775;2021-11-26 14:00:12;0
A Closer Look At Tesla’s Supercharging Network And Expansion Plans;TSLA;0.353;2021-11-26 13:00:04;0
Tesla’s Self-Driving Business Is Powering Ahead Despite Setbacks;TSLA;0.15469;2021-11-24 11:00:00;0
Up 10% Last Week, Is Tesla Stock Poised To Rise Further?;TSLA;0.369518;2021-11-23 11:30:00;0
Stocks Jump After Biden Reappoints Jerome Powell To Lead Federal Reserve;TSLA;0.5267;2021-11-22 15:12:38;1
Xpeng Is Set To Launch A New Electric SUV. Is The Stock A Buy?;TSLA;0.11265;2021-11-22 12:30:38;0
Up 58% Last Month, Are More Gains In The Cards For QuantumScape Stock?;TSLA;0.390325;2021-11-17 15:00:31;0
Stocks That Move The Stock Market;TSLA;0.5526;2021-11-16 16:26:27;1
Dismissing Gold In The Past Led To Some Hard Lessons;TSLA;-0.23835;2021-11-15 22:14:33;1
Rivian Now World’s No. 3 Carmaker By Value As Post-IPO Stock Surge Rolls On;TSLA;0.23398;2021-11-15 22:02:01;1
Lucid Air Named MotorTrend “Car Of The Year”;TSLA;0.9217;2021-11-15 19:09:33;0
EV Share Of China Passenger Car Market More Than Tripled To Nearly 19% In October;TSLA;-0.1351;2021-11-13 18:40:43;-1
What’s New With Nio Stock?;TSLA;0.03245;2021-11-12 14:30:01;-1
Elon Musk Dumps More Tesla Stock—Lifting Total Sales To Nearly $6 Billion This Week;TSLA;0.321463;2021-11-12 14:14:44;-1
Buzzy EV Upstart Rivian Is No. 2 U.S. Automaker By Value After Tesla;TSLA;0.48285;2021-11-11 22:19:00;0
How America’s Richest People Can Access Billions Without Selling Their Stock;TSLA;0.525114;2021-11-11 11:30:00;1
Elon Musk Sells $1.1 Billion In Tesla Stock—But Docs Reveal He Planned To Regardless Of Twitter Poll;TSLA;0.374763;2021-11-11 00:36:16;0
Dow Falls Over 200 Points After Highest Inflation Surge In 30 Years;TSLA;0.1779;2021-11-10 21:06:45;-1
Electric Vehicle Startup Rivian Hits $90 Billion Valuation In Biggest IPO Since Facebook;TSLA;0.31245;2021-11-10 18:02:52;1
What’s Next For Velodyne Lidar Stock After 28% Gain Over The Last Month?;TSLA;0.4531;2021-11-10 15:30:39;0
Stocks End Winning Streak As Investors Look Ahead To Inflation Data;TSLA;0.0866;2021-11-09 21:17:33;-1
Tesla Stock Wipes $140 Billion In One Day After Elon Musk Teases Massive Sale;TSLA;0.23065;2021-11-09 21:01:23;1
Tesla's Stock Plunge Intensifies: Losses Top $130 Billion After Elon Musk Teases Massive Sale;TSLA;0.364313;2021-11-09 16:32:04;-1
Market Pros Fighting The Trend?;TSLA;-0.3182;2021-11-07 23:15:58;-1
How Hertz Went From Bankrupt To Buying 100,000 Teslas;TSLA;0.119067;2021-11-07 12:00:00;-1
Fed Focuses On Taper And Leaves Interest Rates For Another Day;TSLA;0.3182;2021-11-04 21:36:55;1
Nikola To Pay $125 Million Fine To Settle Trevor Milton’s Alleged SEC Violations;TSLA;0.4588;2021-11-04 13:00:00;1
Rising 13% Last Month, What’s Next For Luminar Stock?;TSLA;0.4459;2021-11-04 11:00:57;1
Hertz Investors File To Sell Up To $1.2 Billion In Stock Days After Tesla-Fueled Surge;TSLA;0.304214;2021-11-03 13:31:29;1
Up 17% Last Week, What’s Next For QuantumScape Stock?;TSLA;0.390325;2021-11-03 12:30:38;1
Tesla Stock Loses $40 Billion In Market Value After Elon Musk Says Hertz Contract Hasn’t Been Signed;TSLA;0.356744;2021-11-02 13:42:38;1
Up 30% Over The Last Month, What’s Next For Xpeng Stock?;TSLA;0.1169;2021-11-02 11:30:10;-1
Dow, S&P Post New Record Highs As Investors Await Federal Reserve’s Stimulus Decision;TSLA;0.17;2021-11-01 20:02:09;0
Dow Adds To Record Highs As Investors Await Federal Reserve’s Stimulus Decision;TSLA;0.17;2021-11-01 14:23:50;-1
Why Li Auto Stock Rallied 25% Over The Last Month;TSLA;0.115175;2021-10-29 13:00:34;1
Is Nio Stock Poised To Rally Further Following Expansion Plans, Tesla’s Big Order?;TSLA;0.03245;2021-10-28 12:30:32;1
Tesla Stock Soars On Hertz Deal. Are More Gains In The Offing?;TSLA;0.430645;2021-10-28 11:00:48;0
S&P 500 Falls From Record High But Remains On Track For Its Best Month Since 2020;TSLA;-0.2263;2021-10-27 20:41:09;0
Sorry, I’m Still Bearish – Unless This Happens;TSLA;0.2023;2021-10-27 20:07:59;-1
Dow And S&P Hit New Record Highs As Tesla Adds To Its Massive Rally;TSLA;0.485275;2021-10-26 15:12:04;1
Stocks Close At Record Highs After Tesla Hits $1 Trillion In Market Value;TSLA;0.5973;2021-10-25 20:12:43;1
Is Tesla’s Stock Still Overvalued After Its Q3 Results?;TSLA;0.45779;2021-10-22 15:00:51;1
S&P 500 Hits Record High Amid Upbeat Third-Quarter Earnings;TSLA;0.9136;2021-10-21 20:38:10;0
Tesla, Unilever, And AT&T Beat Earnings Estimates Despite Higher Costs;TSLA;0.1925;2021-10-21 15:45:40;1
Tesla Notches Record $1.6 Billion Quarterly Net As It Readies Global Production Push;TSLA;0.2531;2021-10-20 20:51:52;0
Earnings Preview: What To Expect From Tesla Today;TSLA;0;2021-10-20 13:53:37;1
Will Tesla Stock Rise Following Q3 2021 Earnings?;TSLA;0.421782;2021-10-19 14:30:10;0
With Bitcoin At $60K, Consider These Crypto Stocks;TSLA;0.4576;2021-10-18 12:00:00;0
With Deal Spree, Scandal-Tarred Nikola May Be Getting Back On Track;TSLA;-0.4404;2021-10-15 17:44:21;0
What’s New With Xpeng Stock?;TSLA;-0.149767;2021-10-15 10:00:00;0
Tesla Vs. Apple: Which Megacap Stock Should You Pick?;TSLA;0.244918;2021-10-12 13:15:07;1
Li Auto Stock Was Up 8% Last Week, Is There More Upside?;TSLA;-0.149767;2021-10-12 13:00:31;0
Bitcoin Powers Past $57,000 On Its Quest To Hit A New All-Time High;TSLA;0.5719;2021-10-11 21:00:31;0
Mercedes-Benz Debuts High-Tech Showrooms And A U.S. Road Trip To Promote EVs;TSLA;-0.4404;2021-10-08 17:44:10;1
What’s New With Nio Stock?;TSLA;-0.259433;2021-10-08 11:00:11;0
How Did Tesla Post Record Q3 Deliveries Despite The Chip Shortage?;TSLA;0.367755;2021-10-08 10:30:41;-1
Musk Is Moving Tesla’s Headquarters From California To Texas;TSLA;0.151925;2021-10-07 22:44:06;0
Fortinet, Okta: With Cyberattacks on The Rise, Pick These Stocks;TSLA;0.3818;2021-10-07 14:00:00;0
What’s Happening With Velodyne Lidar Stock?;TSLA;0;2021-10-07 12:30:00;0
In Tesla’s $137M Race Verdict, Big Winner Is IRS;TSLA;-0.327633;2021-10-06 14:21:31;0
Oil Breaks To Historic Levels Which May Have Wide Repercussions;TSLA;0.4213;2021-10-05 14:40:19;-1
Facebook And Apple Plunge Into Correction Territory As Tech Stock Selloff Intensifies;TSLA;0.0028;2021-10-04 20:01:19;1
Five Key Investments Entrepreneurs And Small Business Owners Should Make;TSLA;0.8807;2021-10-04 14:52:31;0
Evergrande And The Debt Ceiling Could Floor Investors;TSLA;0.8999;2021-10-04 13:53:43;0
Tesla Stock Holds Up Despite The Broader Market Selloff. What Next?;TSLA;0.362891;2021-09-30 11:30:12;0
Energy Crises In Europe And China Drive Energy Stocks Higher;TSLA;-0.40165;2021-09-29 13:42:32;0
Dow Plunges Nearly 600 Points As Spiking Treasury Yields Drive Forceful Tech Stock Sell-Off;TSLA;0.1585;2021-09-28 20:01:24;0
Dow Sinks 500 Points As Spiking Treasury Yields Drive Forceful Tech Stock Sell-Off;TSLA;0.4062;2021-09-28 16:16:23;0
Arvinas Inc Ranked Among Today’s Top Shorts As 10-Year Bond Yields Spike;TSLA;-0.0516;2021-09-28 15:10:10;0
Bitcoin Falls On China’s Crypto Crackdown. Are These Crypto Stocks Better Picks?;TSLA;0.4576;2021-09-28 15:00:17;1
Tesla Challenger Polestar Powers Up With Nasdaq Listing Plan Valuing It At $20 Billion;TSLA;0.2202;2021-09-27 16:55:26;1
Evergrande Crisis Knocks 8% Off Nio Stock, What’s Next?;TSLA;-0.259433;2021-09-23 15:45:40;0
What’s New With QuantumScape Stock?;TSLA;0.390325;2021-09-23 15:30:31;-1
Li Auto Stock Hit By Chip Shortage And Evergrande Crisis, But It May Be Time To Buy;TSLA;-0.149767;2021-09-22 14:00:55;0
After 10% Rise Last Month, Will Tesla Stock Rally Further?;TSLA;0.324336;2021-09-21 14:30:42;0
Aurora Plots Robotaxi Service With High-Tech Toyota Minivans;TSLA;0.25;2021-09-20 17:00:49;0
Cathie Wood Makes Adjustments To Portfolio In August;TSLA;0.2023;2021-09-17 19:45:55;-1
Why SoFi Technologies Stock Could Rise 80%;TSLA;0.8481;2021-09-17 13:29:10;0
What Range Anxiety? Electric Lucid Air Snags Record 520-Mile Per Charge EPA Rating;TSLA;0.123667;2021-09-16 12:30:00;0
Expect Stock Market Volatility If Covid Cases Peak;TSLA;0.296;2021-09-15 18:35:06;1
What’s Happening With Luminar Stock?;TSLA;0.377775;2021-09-14 15:30:03;1
Glimmer Of Inflation Hope: Stocks Swing Higher After Data Shows Slower Price Rise;TSLA;0.2732;2021-09-14 15:22:47;1
Bitcoin Has Another Volatile Week. Are These Crypto Stocks Better?;TSLA;0.4576;2021-09-14 15:00:31;1
Quietly, Russia Beating The Market. Now Wall Street Eyes New IPOs;TSLA;0.4075;2021-09-12 21:00:19;1
How Will Toyota’s Big Battery Bet Impact QuantumScape Stock;TSLA;0.390325;2021-09-10 13:00:35;0
Nio Is Poised For A Strong September. Is The Stock A Buy?;TSLA;-0.259433;2021-09-09 14:30:53;1
Optimism And Umbrella: Bulls Step Into A Seasonally Stormy Month Ahead Of Key Inflation Data;TSLA;0.114633;2021-09-09 14:21:10;1
Nio and Xpeng Had A Tough August, But The Outlook Is Looking Brighter;TSLA;-0.149767;2021-09-08 14:15:52;0
The Boeing Company Ranked Among Today’s Trending Stocks Amid Mixed Economic Data;TSLA;0.66412;2021-09-07 13:43:44;0
Li Auto Expects Delivery Growth To Accelerate. Is The Stock A Buy?;TSLA;-0.149767;2021-09-01 10:00:00;0
S&P 500, Nasdaq Surge To New Record Highs Again As Tech Stocks Lead Fed-Sparked Rally;TSLA;0.6808;2021-08-30 20:01:08;0
Is Xpeng Stock A Buy After Its Solid Q2 Report?;TSLA;-0.259433;2021-08-27 14:00:40;0
Is Tesla’s Stock A Better Bet Than GM Stock?;TSLA;0.5317;2021-08-27 09:00:56;0
With Bitcoin Back At $50K, Consider These Crypto Stocks;TSLA;0.4576;2021-08-24 13:30:50;0
10 Takeaways From My Chat With Michael Saylor;TSLA;0;2021-08-20 16:44:36;-1
Nio Stock’s 12% Drop Last Week Is A Buying Opportunity;TSLA;-0.259433;2021-08-20 14:30:03;1
How Will Tesla’s Autopilot Investigation Impact Its Stock?;TSLA;0.2791;2021-08-20 14:00:27;1
Coinbase CEO Reveals $500 Million Bitcoin, Ethereum And Crypto Bombshell As The Market Price Breaks $2 Trillion;TSLA;0.5719;2021-08-20 09:15:51;1
Elon Musk’s Plan To Tout Tesla AI Comes As Tougher Scrutiny Of The Company Looms;TSLA;0.121591;2021-08-18 18:53:09;0
Boeing And Tesla Among Trending Stocks As Covid Cases, Declining Retail Sales And Anticipation Of The Fed’s Meeting Minutes Move Markets;TSLA;-0.1175;2021-08-18 15:03:31;1
Ark Invest’s Cathie Wood Hits Back At ‘Big Short’ Investor: He Doesn’t Understand ‘Explosive Growth’ In Tech;TSLA;0.7891;2021-08-17 13:47:19;-1
U.S. Launches Broad Investigation Into Tesla Autopilot Over Numerous Crashes;TSLA;-0.10188;2021-08-16 14:31:42;-1
MicroStrategy’s Stock Rose With Bitcoin, Will It Continue?;TSLA;0.7003;2021-08-16 11:00:00;-1
Ride Review: Arcimoto’s Smile-Generating ‘Fun Utility Vehicle’ Is Surprisingly Practical - And Fun;TSLA;0.43095;2021-08-13 15:05:54;0
Cathie Wood Whittles Down 2 Positions In July;TSLA;0.2023;2021-08-12 21:20:55;0
With Inflationary Winds Strong But Slowing, Will Fed Policy Look To A Slow Landing?;TSLA;0.743;2021-08-11 14:13:35;0
Why Did QuantumScape Stock Jump 9% On Monday?;TSLA;0.390325;2021-08-11 12:00:00;0
How To Participate In The Coming Electric Vehicle (EV) Boom;TSLA;0;2021-08-09 21:47:53;0
Yum Brands Inc Ranked Among Today’s Top Buys;TSLA;0.8807;2021-08-09 15:41:32;1
Why Cyber Security Stocks Have Rallied Over The Last Month;TSLA;0.3818;2021-08-09 12:00:00;0
Dow, S&P 500 Close At New Highs As Blowout Earnings Stave Off Delta Variant Fears;TSLA;0.4404;2021-08-06 20:25:30;0
Dow, S&P 500 Hit New Highs As Blowout Earnings Stave Off Delta Variant Fears;TSLA;0.4404;2021-08-06 18:45:29;-1
In July 943,000 Jobs Were Added, Unemployment Dipped To 5.4%;TSLA;0.4939;2021-08-06 13:55:10;0
A Move In The Right Direction: Initial Claims Drop Below Expectations;TSLA;-0.1531;2021-08-05 13:46:32;0
Robinhood Billionaire Cofounders’ Fortunes Nearly Double In Two Days Amid Stock’s Wild Rally;TSLA;0.6597;2021-08-04 20:27:00;-1
Li Auto, Nio, Xpeng: How Did Chinese EV Players Fare In July?;TSLA;-0.149767;2021-08-04 13:00:00;0
Will The Post Earnings Rally In Tesla Stock Continue?;TSLA;0.34875;2021-08-04 12:00:00;0
The Metaverse: What Every Early-Stage Investor Needs To Know;TSLA;0.34;2021-08-03 19:06:34;0
Down 40% This Year, Is Luminar Stock A Buy?;TSLA;0.377775;2021-08-03 15:20:00;-1
Nikola CEO Keeps Focus On Truck Production In Wake Of Founder’s Fraud Charges;TSLA;0;2021-08-03 11:30:00;0
Nikola Founder’s Bombshell Fraud Charges May Hold Warning For Tesla’s Elon Musk;TSLA;0.169157;2021-07-31 12:00:00;1
Is Nio Stock’s 11% Drop A Buying Opportunity?;TSLA;-0.259433;2021-07-29 11:30:00;0
Tesla’s Q2 Results Were Solid, But We Still Think The Stock Is Overpriced;TSLA;0.34376;2021-07-28 13:20:00;0
Earnings Preview: What To Expect From Microsoft Today;TSLA;0.2023;2021-07-27 18:09:21;-1
AI Identifies Plug Power Among Top Stocks To Short For Second Day;TSLA;0.6705;2021-07-27 16:43:32;-1
QuantumScape Stock: What Are The Risks?;TSLA;0.390325;2021-07-27 14:50:00;-1
Tesla Profit Streak Rolls On For Eighth Quarter, Powered By Record Net Income;TSLA;0.1811;2021-07-26 20:42:01;-1
Target And Lowe’s Among Stocks Rated Top Buy Today;TSLA;0.2263;2021-07-26 18:08:58;1
Blink Charging And Plug Power Receive Top Short Rating Today;TSLA;0.8402;2021-07-26 17:39:51;1
Still Time For A Market Vacation;TSLA;0.3612;2021-07-25 20:46:11;1
The Walmarts Of Wall Street Are Cashing In On Crypto, Here’s What Investors Need To Know;TSLA;0.7556;2021-07-25 13:12:40;1
Why Cyber Security Stocks Have Rallied In Recent Weeks;TSLA;0.3818;2021-07-23 14:30:00;0
What’s New With Li Auto Stock?;TSLA;-0.276;2021-07-22 16:10:00;-1
Interest Coverage Ratio: Unscrubbed Data Creates Misleading Credit Ratings;TSLA;0.6779;2021-07-22 13:25:42;0
Tesla Q2 Sales Seen Strong On Record-Breaking Deliveries, But Bitcoin Slump Flashes Caution Sign;TSLA;0.396133;2021-07-21 18:57:48;0
Is Nio Stock Poised To Recover From The Sell Off?;TSLA;-0.276;2021-07-20 13:00:00;0
A Monday To Forget: Covid Concerns Come Back, Pushing Reopening Stocks, Crude Sharply Lower;TSLA;0.8625;2021-07-19 20:45:44;0
Dow Plunges 600 Points Amid Threat Of Delta Variant ‘Ravaging’ Unvaccinated Populations;TSLA;-0.0772;2021-07-19 14:02:13;-1
Bring On More Solar And Wind — But Have Backup Power And Energy Storage;TSLA;0.7906;2021-07-19 13:00:00;-1
Will Tesla Continue To Rely On Regulatory Credits To Drive Q2 Earnings?;TSLA;0.252245;2021-07-16 14:30:00;0
Self-Driving Tech Developer Aurora Raising $2 Billion In SPAC Listing That Values It At $11 Billion;TSLA;0.25;2021-07-15 16:17:22;0
Goldman Sachs Reveals Surprise Coinbase Prediction After $1 Trillion Bitcoin And Crypto Price Crash;TSLA;-0.25;2021-07-14 23:50:00;0
Down 20% Over The Last Month, Is It Time To Buy QuantumScape Stock?;TSLA;0.390325;2021-07-13 12:30:00;0
MLB Goes All In On NFTs With Lou Gehrig, Now LA Dodgers Art. Why Is This Still A Thing?;TSLA;0.5563;2021-07-12 14:08:00;0
Nvidia’s Stock Up 35% Since Split Announcement, Are Intuit, Alphabet And Amazon Next?;TSLA;0.231033;2021-07-09 14:00:00;0
Is Velodyne Stock A Buy After Big Sell-Off?;TSLA;0;2021-07-09 12:30:00;-1
Dow Plunges 500 Points As Delta Variant Fears Rattle Markets;TSLA;-0.4019;2021-07-08 14:10:54;-1
Nio, Xpeng, Li Auto: After A Stellar June, Are Chinese EV Stocks A Buy?;TSLA;-0.276;2021-07-07 15:20:00;-1
Bitcoin Mining Uses A Higher Mix Of Sustainable Energy Than Any Major Country Or Industry;TSLA;0.4215;2021-07-06 17:05:58;0
With Bitcoin At $34K, Consider These Crypto Stocks;TSLA;0.4576;2021-07-02 14:00:00;-1
Tesla Notches 122% Gain In Quarterly Vehicle Deliveries, But Analysts Wanted More;TSLA;0.413217;2021-07-02 13:40:01;-1
Will Nio Stock Continue To Rally After Gaining 14% Last Week?;TSLA;0.6249;2021-07-01 15:30:00;0
Tesla Stock Was Up 11% Over The Last Week, Will The Rally Continue?;TSLA;0.23239;2021-06-30 14:30:00;0
A Big Bet On Travel: United Announces Major Purchase Of Boeing Planes, But Market Looks Flat;TSLA;0.3481;2021-06-29 13:23:07;0
July Outlook: Fun In The Sun As Earnings Season Dawns And Corporate Forecasts Loom;TSLA;0.1779;2021-06-28 18:24:35;-1
S&P 500, Nasdaq Hit New Record Highs As Experts Warn About 'Absurd' Investor Expectations;TSLA;0.5994;2021-06-28 14:16:58;1
What Are The Catalysts For Tesla Stock’s Next Big Rally?;TSLA;0.298718;2021-06-28 13:30:00;0
These Tech Companies Run By Emerging Market Migrants Are Beating The Nasdaq;TSLA;0;2021-06-27 21:00:00;0
Bitcoin Billionaire Issues Stark Warning Over ‘Trillion-Dollar’ Mistake Amid Extreme Crypto Price Volatility;TSLA;0.5267;2021-06-26 23:20:00;0
David Einhorn's Favorite Consumer Cyclical Stocks;TSLA;0.6124;2021-06-25 21:25:31;0
What A Week: Major Indices Stay Near Record Highs After Strong Nike Results, Benign Inflation Data;TSLA;0.8519;2021-06-25 13:21:23;-1
These 5 Big NASDAQ-100 Components Are Failing To Hit New Highs;TSLA;-0.16115;2021-06-24 21:05:35;-1
Evergy Receives Top Buy Rating Today As Dow Performance Jumps;TSLA;0.5719;2021-06-24 16:57:17;1
AI Models Rate Expedia And Sunpower Top Short Today;TSLA;0.8225;2021-06-24 16:43:40;1
As Nasdaq Hits New High, These Are The Tech Stocks Leading The Market;TSLA;0.148;2021-06-23 20:02:19;0
Bank Of Hawaii Named Top Buy Today By AI As Comeback Rally Continues;TSLA;0.9118;2021-06-23 17:58:07;0
Here's When Every Major Cryptocurrency Peaked This Year;TSLA;0.4327;2021-06-23 17:54:23;0
Li Auto, Nio, Xpeng: Chinese EV Stocks Fully Priced Following Recent Rally, Planned Rate Hikes;TSLA;-0.276;2021-06-22 13:00:00;1
An Investing Truth: Roughly 80% Of Stocks Are “Duds”;TSLA;0.7397;2021-06-21 13:00:00;-1
Inflation: The Media Screams, But The Market Is Unfazed;TSLA;0.1406;2021-06-21 03:17:42;0
Addison Rae’s Family Gets Bit By The Crypto Bug As They Invest In Gryphon Digital Mining;TSLA;0.5719;2021-06-20 13:45:58;0
Plucky L.A. Startup Xos Plots A Multibillion-Dollar Future In Unsexy Electric Work Trucks;TSLA;0.5559;2021-06-17 13:30:00;0
Fed Time: Market Mulling Key Retail Sales, Producer Prices As Central Bank Meeting Begins;TSLA;0.8519;2021-06-15 13:35:50;0
Proterra Looks To Electrify Heavy-Duty Vehicle Market As Battery Bus Pioneer Hits Nasdaq;TSLA;0.8316;2021-06-15 12:00:00;0
If Every Company Is A Technology Company, Every CXO Has To Be A Technologist;TSLA;0.258633;2021-06-15 11:00:00;0
Invesco QQQ Trust And Vanguard Growth ETF Rated Top Buys This Week;TSLA;0.6249;2021-06-14 18:17:37;0
Artificial Intelligence Identifies Archer-Daniels-Midland Co Among Today’s Top Buys;TSLA;0.8074;2021-06-14 14:22:50;0
Post-Pandemic Technology Trends. It’s Time To Identify The Friends & the Enemies.;TSLA;0.601933;2021-06-09 14:32:31;0
Cyber Security Stocks To Watch After Colonial Pipeline And JBS Hacks;TSLA;0.3818;2021-06-09 13:30:00;0
Carvana And Redfin Corp Rated Among Today’s Top Shorts;TSLA;0.8807;2021-06-08 15:09:48;-1
Artificial Intelligence Ranks Kadant Inc Among Today’s Top Buys;TSLA;0.6124;2021-06-08 15:03:48;-1
Tesla’s Long-Time Trucking, Automotive President Jerome Guillen Quits;TSLA;-0.18935;2021-06-07 21:49:09;1
Is Bigger Better? Stocks Tend To Underperform After Joining Top 10;TSLA;0.1267;2021-06-07 12:00:00;0
Nio & Xpeng: Is The Worst Of The Semiconductor Crunch Over For Chinese EV Stocks?;TSLA;-0.276;2021-06-03 15:10:00;1
After Nvidia's Stock Split Announcement, Are Adobe, Alphabet And Amazon Next?;TSLA;0.4477;2021-06-02 14:50:00;-1
‘It’s Inevitable’—Elon Musk Sends The Dogecoin Price Sharply Higher After Coinbase Drops Doge Bombshell;TSLA;0.62005;2021-06-02 08:20:00;0
Why Li Auto Stock Could Rally Further;TSLA;-0.276;2021-06-01 13:00:00;0
Stock Market: Growth Stocks On Discount;TSLA;0.51022;2021-05-28 11:51:34;0
Will Luminar Stock Benefit As Tesla Tests Lidar?;TSLA;0.30222;2021-05-26 13:30:00;0
Stock Splits: This Is Why This Corporate Action Is Often Misunderstood By Investors;TSLA;0.45075;2021-05-26 12:35:08;0
Bitcoin Correction Or Bear Market?;TSLA;-0.204467;2021-05-25 22:35:57;1
Tesla And Facebook Among Today’s Growth Stocks With F Scores;TSLA;0.4715;2021-05-24 16:49:57;1
As Stocks Struggle For A Green May, Retail Earnings Again Dominate Weekly Calendar;TSLA;0.3612;2021-05-24 13:20:06;0
Nio, Xpeng And Li Auto: How Do Chinese EV Stocks Compare?;TSLA;-0.276;2021-05-24 12:30:00;0
Has Nio Stock Bottomed Out?;TSLA;0.04372;2021-05-21 14:00:00;0
Springtime Green: Deere Earnings, Tech Strength Leading Late-Week Market Comeback;TSLA;0.3091;2021-05-21 13:32:53;-1
Investors Shouldn’t Worry Right Now (Except About Crypto);TSLA;-0.5106;2021-05-19 22:16:53;0
Is Coinbase Stock A Good Buy Now?;TSLA;-0.1453;2021-05-19 16:00:41;0
Artificial Intelligence Identifies Amyris And Kirby Corp As Top Shorts As Growth Stocks Drop;TSLA;-0.148;2021-05-19 15:42:58;-1
Crexendo Among Today’s Top Buys As Major Indices Plummet;TSLA;0.2023;2021-05-19 15:34:29;-1
Colonial Pipeline Hack Puts Cybersecurity Back In Focus. Which Stocks Should You Pick?;TSLA;0.3818;2021-05-18 14:30:00;-1
Recent Correction An Opportunity To Buy Tesla Stock?;TSLA;0.2421;2021-05-18 13:30:00;-1
It’s Not Just Crypto Crashing: Here Are All The Market Bubbles Popping So Far This Year;TSLA;0.128;2021-05-17 17:05:57;-1
Tupperware Brands Among Today’s Top Shorts As The Dow, S&P 500, And Nasdaq Drop;TSLA;-0.296;2021-05-17 15:19:37;0
Why Dip Buyers Need A Method;TSLA;-0.3182;2021-05-16 18:30:49;0
Coinbase Reveals Dogecoin Bombshell As Bitcoin And Crypto Price Fears Grip The Market;TSLA;-0.296;2021-05-15 11:30:00;0
Arvinas Among Top Shorts Today As Dow, S&P 500, And Nasdaq Climb For Another Consecutive Day;TSLA;0.8532;2021-05-14 15:09:19;-1
Is Xpeng Stock A Buy Following Strong Q1 Results?;TSLA;0.08587;2021-05-14 13:00:00;0
Transitory Inflation? Like CPI Yesterday, PPI Comes In Above Consensus But Market Stable In Early Going;TSLA;0.550933;2021-05-13 14:17:10;1
Bitcoin Fell Below $50,000 Before Bouncing Back—What’s Next?;TSLA;0.6736;2021-05-13 03:26:36;-1
Bitcoin Tanks After Elon Musk Says Tesla Stops Accepting It For Car Purchases Due To Energy Use;TSLA;0.382167;2021-05-12 23:08:55;-1
Four Robinhood Stocks With Promising Investment Returns;TSLA;0.56465;2021-05-12 17:07:53;-1
Cintas Among Today’s Top Buys As Tech Stocks Continue To Fall Behind;TSLA;0.296;2021-05-11 17:04:13;-1
Tesla’s China Sales Dip, Scaled-Back Shanghai Plans Extend Share Price Slide;TSLA;0.2191;2021-05-11 15:37:55;1
Tupperware Brands Corp And Redfin Corp Among Today’s Top Shorts;TSLA;-0.5719;2021-05-11 15:16:08;1
Dow Plunges 300 Points As ‘Worst-Case Scenario’ Inflation Fears Mount;TSLA;0.0516;2021-05-11 13:47:03;-1
Fluor Corp Named Top Short Today As Energy Stocks Lead Following Colonial Pipeline Attack;TSLA;0;2021-05-10 14:38:14;-1
Tesla Rival Lucid To Advertise Electric Air Sedan On NBC As Elon Musk Hosts SNL;TSLA;0.243667;2021-05-07 21:58:15;0
Tech Stocks Shake Off Fifth Day Of Losses, But Insiders Are Cashing Out While Retail Traders Splurge;TSLA;-0.5965;2021-05-06 16:28:28;-1
Alaska Airlines And Redfin Among Today’s Top Shorts As The Dow, S&P, And Nasdaq Rebound Following Janet Yellen’s Comments On Interest Rates And Inflation;TSLA;0.7579;2021-05-05 15:39:41;-1
Asgn Inc (ASGN) And Altria Group Inc (MO) Among Today’s Top Buys;TSLA;0.875;2021-05-05 15:17:32;-1
Road Trip: Lyft, GM Results Provide Early Acceleration, With Uber Earnings Parked Ahead;TSLA;0.2436;2021-05-05 13:14:00;1
Tech Stocks Tumble After 'Sudden' Trading Slump—Here's Why Experts Are Worried The Weakness Could Continue;TSLA;0.296;2021-05-04 13:51:03;-1
Electric Truckmaker Arrival Developing Battery-Powered Rideshare Car With Uber;TSLA;0;2021-05-03 23:01:14;-1
What Nio’s Q1 Results Mean For Its Stock;TSLA;0.04372;2021-05-03 11:00:00;-1
CIO Next 2021: 50 Innovative Technology Leaders Transforming Business For A Radically Different World;TSLA;0.3612;2021-04-29 10:30:00;0
‘The Dogefather’ Elon Musk And Billionaire Investor Mark Cuban Help Dogecoin Leave Bitcoin And Ethereum In The Dust With 20% Price Rally;TSLA;0.4404;2021-04-29 00:20:00;1
Materiality Across Asset Classes: A Look At Fixed Income ESG Integration;TSLA;0.3612;2021-04-28 04:03:41;0
Here Are The Top Stocks Riding The Crypto Wave And 'Dramatically' Outperforming The Market;TSLA;0.4215;2021-04-27 18:04:58;0
Today’s Top Shorts Amid Anticipation Of Alphabet And Microsoft Earnings;TSLA;-0.0516;2021-04-27 15:04:44;-1
Here's Why Experts Think The Stock Market Could Rip Higher As Stocks Test New Highs;TSLA;0.05075;2021-04-27 14:10:33;-1
Tesla Extends Profit Streak On Strong Q1 Sales Of Electric Cars–And Pollution Credits;TSLA;0.5247;2021-04-26 21:05:27;-1
Tesla Rises On ‘Monster’ Expectations As Stocks Gear Up For Big Earnings Week;TSLA;0.1332;2021-04-26 13:51:30;1
Earnings Preview: What To Expect From Tesla On Monday;TSLA;0.3949;2021-04-25 18:29:46;1
Investors Likely Looking For More Clarity On Tesla’s Navigation Of Semiconductor Shortage;TSLA;0.330956;2021-04-23 15:31:01;1
Elon Musk Is Critic Of Laser Lidar For Autonomous Cars, But Top Tesla Lawyer Joins Luminar;TSLA;-0.3418;2021-04-21 16:33:40;1
Dow Jumps 200 Points: Stocks Fend Off Third Day Of Losses Despite Biotechs, Netflix Falling;TSLA;0.6124;2021-04-21 14:51:03;-1
Solar City? Turning Buildings Into Power Plants;TSLA;-0.0816;2021-04-20 23:33:39;0
Will A Third Covid-19 Vaccine Dose Boost Moderna Stock?;TSLA;0.04372;2021-04-20 14:00:00;1
Nio, Li Auto, Xpeng: What’s Driving The Sell Off In Chinese EV Stocks?;TSLA;0.04372;2021-04-20 13:50:00;1
WeWork To Accept Crypto—And Will Pay Its Landlords In Crypto;TSLA;0.807767;2021-04-20 13:46:49;1
Earnings Continue Looking Solid, But Virus Worries In India, South America Hit Market;TSLA;0;2021-04-20 13:26:40;1
How Will Tesla Stock Trend Post Q1 2021 Earnings?;TSLA;0.189218;2021-04-20 12:30:00;0
Top Stocks To Short Today As The Major Indices Fall From Records;TSLA;0.7291;2021-04-19 15:49:16;-1
Top Stocks To Buy Today As Markets Slip;TSLA;0.7783;2021-04-19 15:42:18;-1
Stocks Are On The Brink Of A Grizzly Bear Market;TSLA;-0.5416;2021-04-19 01:08:46;-1
Serious Crypto ‘Washout’ Warning As Massive $300 Billion Price Flash Crash Suddenly Tanks Bitcoin, Ethereum, Ripple’s XRP And Cardano;TSLA;0.63335;2021-04-18 23:10:00;-1
A WEF Exec Made A ‘Dramatic’ Bitcoin Warning Amid Coinbase-Fueled Bitcoin Price Mania;TSLA;0.0772;2021-04-18 00:10:00;-1
S&P And Dow Score New Record Highs, For The Week: Health Care, Materials And Utilities Sectors Lead Gains;TSLA;0.5859;2021-04-16 20:14:13;-1
Bitcoin And Ethereum Are Being Left In The Dust By Dogecoin As The Memecoin Price Suddenly Rockets 300%;TSLA;0.5719;2021-04-16 08:00:24;-1
Dow Closes Above 34,000 For First Time Ever After Blowout Big Bank Earnings And Economic Data;TSLA;0.41355;2021-04-15 20:01:29;1
Dow Jumps 200 Points: Stocks Hit New Highs After Blowout Big Bank Earnings And Economic Data;TSLA;0.41355;2021-04-15 13:57:52;0
Retail Sales Surge, Jobless Claims Dive, Bank Earnings Impress Amid Growing Optimism;TSLA;0;2021-04-15 13:20:32;0
Coinbase Skyrockets In Nasdaq Listing, Landing $105 Billion Valuation On First Day Of Trading;TSLA;0.6124;2021-04-14 17:48:37;1
JPMorgan, Goldman And Wells Fargo Post 'Monster' $69 Billion In Sales—Shattering Expectations As Stocks Extend Highs;TSLA;0;2021-04-14 13:49:03;0
Big Bank Bonanza: Earnings Off To Strong Start As JP Morgan, Goldman Sachs Crush Expectations;TSLA;0.6808;2021-04-14 13:26:18;1
S&P 500 Posts New Record High, Tesla Skyrockets Despite Worse-Than-Feared Inflation Data And Vaccine Concerns;TSLA;0.4521;2021-04-13 20:00:55;1
Top 10 Companies Behind The 2021 Midas List: Newcomers And IPOs Dominate;TSLA;0.7351;2021-04-13 10:20:00;1
Bitcoin And Crypto Braced For Near-$100 Billion Coinbase ‘Boom’ As Bitcoin Price Suddenly Soars;TSLA;0.3612;2021-04-12 09:30:00;1
Fed Chair Powell Warns That Cyber Attacks And Covid-19 Spreading Again Are The Biggest Risks To The Economy;TSLA;0.4767;2021-04-11 23:52:06;1
Who Will Follow Coinbase’s Path To Wall Street?;TSLA;0.2732;2021-04-11 21:00:00;1
Top Stocks To Buy This Month Amid Optimistic Markets;TSLA;0.6841;2021-04-07 16:06:22;-1
JPMorgan Billionaire Dimon Cheers Upcoming ‘Boom’—And S&P, Dow Back Near Record Highs;TSLA;-0.296;2021-04-07 13:51:39;0
Stocks Stall Near Record Highs As Investors Shift Focus To Earnings Season;TSLA;0.4215;2021-04-06 14:08:54;1
Thin Soup: With Fresh News Scarce, Focus Stays On Infrastructure, Fed, Vaccine Data;TSLA;0.38545;2021-04-06 13:27:11;0
Do Strong March Deliveries, Recent Correction Make Nio, Li Auto & Xpeng Stocks A Buy?;TSLA;0.09946;2021-04-06 13:00:00;1
What Tesla’s Strong Q1 Deliveries Mean For Its Stock;TSLA;0.27317;2021-04-06 12:30:00;0
Delayed Reaction: Three Days After Blowout Jobs Report, Stocks Enjoy Tailwind;TSLA;0.6705;2021-04-05 15:25:31;-1
Dow Jumps 300 Points: Stocks Surge To Record Highs As Tesla Adds $40 Billion In Market Value;TSLA;0.39225;2021-04-05 13:50:36;0
10 Largest Venture Rounds In Crypto And Blockchain;TSLA;0.3818;2021-04-03 15:06:40;1
Bachelor Clues Tax Observations On Crypto Not To Be Relied On;TSLA;0.0258;2021-04-02 21:21:47;1
What’s In Store For Wall Street’s Second Quarter?;TSLA;0.2023;2021-04-01 13:38:36;1
The Coming Disruption: The Global Alternative Energy Megatrend;TSLA;0.003133;2021-04-01 11:50:00;1
Biden’s Infrastructure Plan Would Provide Big Boost For Tesla, GM And EV Startups;TSLA;0.58742;2021-03-31 18:03:25;0
Biden's Tax Hikes Stunt The Market, But These Stocks Are Rising In Anticipation Of His $2 Trillion Plan;TSLA;0.7506;2021-03-31 13:50:01;1
Top Stocks To Short Today Amid Bond Headwinds;TSLA;0.0258;2021-03-30 15:54:55;1
Tech Stocks Fall Again As Yields Spike Ahead Of Biden’s Big Infrastructure Announcement;TSLA;-0.2449;2021-03-30 13:49:25;0
A True “Reopening” Trade: Suez Resumes Traffic, But Stocks Under Pressure As Yields Rise;TSLA;-0.743;2021-03-30 13:28:36;0
What’s Happening With QuantumScape Stock?;TSLA;0.390325;2021-03-30 11:30:00;0
Nio, Xpeng, Li Auto: Chinese EV Stocks In A Bear Market, Opportunity?;TSLA;0.04372;2021-03-30 10:00:00;-1
April Outlook: Growth Vs. Value Face-Off Grips Market As Yields, Virus Progress Eyed;TSLA;-0.4404;2021-03-26 18:42:58;-1
The Founder Of Electric Vehicle Maker Arrival Is Worth $10.6 Billion After SPAC IPO;TSLA;0;2021-03-25 21:49:12;0
Tech Stocks Like Tesla Are 'Screaming' For A Correction–Here Are The Ones Most At Risk;TSLA;-0.0546;2021-03-25 20:21:38;0
Arrival Drops As Electric Vehicle Upstart Makes Nasdaq Debut;TSLA;0;2021-03-25 14:06:46;-1
Dow Falls 150 Points As Nike Plunges Over China Boycott And Alleged Ties To Forced Labor;TSLA;-0.6908;2021-03-25 13:39:44;-1
If Bitcoin Crashes Here, The Whole Market’s Going With It;TSLA;0.722;2021-03-25 13:25:44;-1
Dow Jumps 200 Points, GameStop And ViacomCBS Plunge, Prompting Warnings Of Risky Stock Frenzies;TSLA;0.4588;2021-03-24 13:45:13;0
Dow Slips 100 Points Ahead Of Fed Chair Powell's Remarks One Year After Covid Market Crash Ended;TSLA;0;2021-03-23 13:47:32;1
Bitcoin, Tesla And GameStop: 10 Numbers That Sum Up The Fastest Market Recovery Ever;TSLA;0.30804;2021-03-23 10:30:00;0
Tech Stocks Rise Again As More Than $50 Billion In Deals Take Hold;TSLA;0.521167;2021-03-22 13:46:48;1
Yields In Driver’s Seat: Early Dip Could Support Tech, Weigh On Financials;TSLA;0.8979;2021-03-22 13:24:27;1
Nio Stock Looks Attractive After Falling 25% Last Month;TSLA;0.15477;2021-03-22 13:00:00;1
Tesla Has A Temperature Problem;TSLA;0.128155;2021-03-19 10:30:00;1
Top Stocks To Buy Today As Rising Bond Yields Spook Investors;TSLA;0.8225;2021-03-18 15:09:24;-1
Dow Tests New High, But Tech Stocks Sink Again As Treasury Yields Spike Further;TSLA;-0.2023;2021-03-18 13:57:47;0
Oregon EV Maker Arcimoto Reveals New Model, Makes Big Moves As Stock Suddenly Surges;TSLA;0.296;2021-03-17 16:30:00;1
EV Upstart Arrival Plans $41 Million ‘Microfactory’ To Make Electric Vans For UPS;TSLA;-0.07655;2021-03-17 13:00:00;-1
Why Tesla Stock Looks Set To Rally Further;TSLA;0.157627;2021-03-16 12:30:00;0
Why The Nasdaq Stock Market Is A Focal Point Now;TSLA;0.7506;2021-03-15 19:35:16;0
10-Year. Treasury Rise Triggers A Market Shift Toward Value;TSLA;0.3182;2021-03-15 14:56:04;0
Dow Jumps 150 Points, Adds To Record High Despite Threat Of Increased Taxes;TSLA;0.3454;2021-03-15 13:41:08;0
A Market That Gets No Respect: Stocks Near All-Time Highs Despite Hand-Wringing;TSLA;0.6908;2021-03-15 13:17:52;0
Five Ways The Biden Administration Advanced Sustainable Investing In Its First 50 Days, Including Two Last Week;TSLA;-0.1531;2021-03-15 06:00:32;1
Lordstown Motors Stung By Short Seller’s Accusations Electric Truckmaker Misled Investors;TSLA;0.5859;2021-03-12 17:29:03;1
Top Stocks To Short Today As Nasdaq Plummets And Fears Of Inflation Increase;TSLA;0.6124;2021-03-12 16:37:00;0
Rising Treasury Yields Seem To Be Stirring Some Unease In Equity Market;TSLA;0.8555;2021-03-12 15:22:48;-1
Cyber Security Stocks Have Underperfomed This Year, Time To Buy?;TSLA;0.3818;2021-03-12 11:00:00;-1
How Much Money You Will Get From Stimulus Checks, Unemployment Benefits And Everything Else Inside Biden's $1.9 Trillion Relief Bill;TSLA;0.4902;2021-03-11 23:11:32;1
Top Stocks To Buy Today As Dow Hits Another Record And Tech Recovers;TSLA;0.8481;2021-03-11 16:16:18;-1
Nasdaq Leads The Way As Yields Decline Following ECB Decision To Increase Bond Buys;TSLA;0;2021-03-11 14:51:54;0
Dow Jumps Another 100 Points As $1.9 Trillion Stimulus Plan Continues To Boost Market;TSLA;0.49265;2021-03-11 14:41:14;0
Top Stocks To Buy Today As The Dow Surges And Tech Gains More;TSLA;0.9432;2021-03-10 15:59:17;1
Dow Jumps 300 Points After Positive Inflation Data–But The Risk Is Far From Over;TSLA;0.4927;2021-03-10 14:47:07;1
Should You Buy Tesla Stock After 35% Drop?;TSLA;0.222918;2021-03-10 14:30:00;1
Pendulum Slows—For Now: 10-Year Treasury Auction, Stimulus Vote Straight Ahead;TSLA;0.6486;2021-03-10 14:23:59;1
Top Stocks To Short Today Amid Reverse Rotation;TSLA;0.7845;2021-03-09 15:46:48;1
Dow Jumps 100 Points As Tech Stocks Recover–But Experts Don't Think The Selloff Is Over;TSLA;0.01275;2021-03-09 14:43:09;1
Tech Retreat Stalls, But For How Long? Falling Yields, Dollar Come To Market’s Aid;TSLA;-0.0501;2021-03-09 14:25:20;1
Stock Market Meltdown: Nasdaq Picks, From Hero To Zero;TSLA;0.1779;2021-03-09 14:01:03;1
Bitcoin Suddenly Soars Toward $60,000 Price—Roaring Past $1 Trillion As Fear Grips Tech Stocks;TSLA;0.07455;2021-03-09 07:50:00;-1
Dow Jumps 150 Points, But Tech Selloff Continues After Senate Passes Biden’s $1.9 Trillion Stimulus Plan;TSLA;0.7906;2021-03-08 14:39:31;-1
Overnight Momentum Change: Early Rally Fizzles As Treasury Yields Climb Above 1.6%;TSLA;-0.4215;2021-03-08 14:30:32;-1
Top Stocks To Buy In March;TSLA;0.6795;2021-03-05 18:18:55;-1
Will Tesla Stock Decline Further After Falling 17% Last Month?;TSLA;0.29018;2021-03-03 15:30:00;-1
Nio Stock Updates: Mixed Q4 Earnings & Outlook;TSLA;0.27933;2021-03-03 15:00:00;-1
Are IDEXX, Alphabet & Amazon Poised For Stock Splits In 2021?;TSLA;0.4477;2021-03-01 14:30:00;0
How To Charge Your Portfolio With Chinese EV Disruptors Like Nio, Xpeng and Li;TSLA;0.42405;2021-02-22 06:50:41;-1
David Einhorn's Top 4 Buys Of The 4th Quarter;TSLA;0.0772;2021-02-19 23:01:03;-1
As Bitcoin’s Total Value Nears $1 Trillion, These Crypto Prices Are Leaving Bitcoin In The Dust;TSLA;0.6249;2021-02-18 07:30:00;-1
GameStop, Tesla: Do Asset-Bubbles Exist? Can They Be Managed?;TSLA;0.179909;2021-02-18 01:12:36;-1
3+% Dividends From 5 Cheap Bank Stocks;TSLA;0.872;2021-02-17 21:54:50;1
Buy Churchill Capital IV (CCIV) On $12B Lucid Motors Merge Report;TSLA;0.3378;2021-02-17 13:34:58;1
Could Tesla Raise A $30 Billion Cash War Chest?;TSLA;0.276085;2021-02-05 12:30:00;1
